{
    "F:\\Inhouse Projects\\Material Design Components\\Repo\\mdlc\\force-app\\": {
        "sourcePath": "F:\\Inhouse Projects\\Material Design Components\\Repo\\mdlc\\force-app\\",
        "deferContentHash": false,
        "isWorkspace": false,
        "isArtifactRoot": true,
        "state": "u",
        "package": "force-app",
        "isDirectory": true,
        "isMetadataFile": false,
        "size": 0,
        "modifiedTime": 1597732788779,
        "changeTime": 1597732788779,
        "contentHash": "b28b7af69320201d1cf206ebf28373980add1451"
    },
    "F:\\Inhouse Projects\\Material Design Components\\Repo\\mdlc\\force-app\\main": {
        "sourcePath": "F:\\Inhouse Projects\\Material Design Components\\Repo\\mdlc\\force-app\\main",
        "deferContentHash": false,
        "isWorkspace": false,
        "isArtifactRoot": false,
        "state": "u",
        "package": "force-app",
        "isDirectory": true,
        "isMetadataFile": false,
        "size": 0,
        "modifiedTime": 1597732788779,
        "changeTime": 1597732788779,
        "contentHash": "7505d64a54e061b7acd54ccd58b49dc43500b635"
    },
    "F:\\Inhouse Projects\\Material Design Components\\Repo\\mdlc\\force-app\\main\\default": {
        "sourcePath": "F:\\Inhouse Projects\\Material Design Components\\Repo\\mdlc\\force-app\\main\\default",
        "deferContentHash": false,
        "isWorkspace": false,
        "isArtifactRoot": false,
        "state": "u",
        "package": "force-app",
        "isDirectory": true,
        "isMetadataFile": false,
        "size": 0,
        "modifiedTime": 1597732789052,
        "changeTime": 1597732789052,
        "contentHash": "82462f4d6dbd4143318fbd804a3725f68fd163d8"
    },
    "F:\\Inhouse Projects\\Material Design Components\\Repo\\mdlc\\force-app\\main\\default\\aura": {
        "sourcePath": "F:\\Inhouse Projects\\Material Design Components\\Repo\\mdlc\\force-app\\main\\default\\aura",
        "state": "u",
        "package": "force-app",
        "isDirectory": true,
        "isMetadataFile": false,
        "size": 0,
        "modifiedTime": 1597839675442,
        "changeTime": 1597839675442,
        "contentHash": "555e4d9479929c7f380f74fe23bbb7cce11465c4"
    },
    "F:\\Inhouse Projects\\Material Design Components\\Repo\\mdlc\\force-app\\main\\default\\aura\\MaterialDesignComponent": {
        "sourcePath": "F:\\Inhouse Projects\\Material Design Components\\Repo\\mdlc\\force-app\\main\\default\\aura\\MaterialDesignComponent",
        "deferContentHash": false,
        "isWorkspace": false,
        "isArtifactRoot": false,
        "state": "u",
        "package": "force-app",
        "isDirectory": true,
        "isMetadataFile": false,
        "size": 0,
        "modifiedTime": 1597839219070,
        "changeTime": 1597839219070,
        "contentHash": "d32d82fce6317764ed89f6626724998b252b77d4"
    },
    "F:\\Inhouse Projects\\Material Design Components\\Repo\\mdlc\\force-app\\main\\default\\aura\\MaterialDesignComponent\\MaterialDesignComponent.cmp": {
        "sourcePath": "F:\\Inhouse Projects\\Material Design Components\\Repo\\mdlc\\force-app\\main\\default\\aura\\MaterialDesignComponent\\MaterialDesignComponent.cmp",
        "state": "u",
        "package": "force-app",
        "isDirectory": false,
        "isMetadataFile": false,
        "metadataType": "AuraDefinitionBundle",
        "size": 970,
        "modifiedTime": 1597839675426,
        "changeTime": 1597839675426,
        "contentHash": "cf89547057977e48e83eb0457d955490dd52bf8b"
    },
    "F:\\Inhouse Projects\\Material Design Components\\Repo\\mdlc\\force-app\\main\\default\\aura\\MaterialDesignComponent\\MaterialDesignComponent.cmp-meta.xml": {
        "sourcePath": "F:\\Inhouse Projects\\Material Design Components\\Repo\\mdlc\\force-app\\main\\default\\aura\\MaterialDesignComponent\\MaterialDesignComponent.cmp-meta.xml",
        "state": "u",
        "package": "force-app",
        "isDirectory": false,
        "isMetadataFile": true,
        "metadataType": "AuraDefinitionBundle",
        "size": 232,
        "modifiedTime": 1597839675410,
        "changeTime": 1597839675410,
        "contentHash": "c721d797a985fe1c77bd9d53af900709914efa22"
    },
    "F:\\Inhouse Projects\\Material Design Components\\Repo\\mdlc\\force-app\\main\\default\\aura\\MaterialDesignComponent\\MaterialDesignComponent.css": {
        "sourcePath": "F:\\Inhouse Projects\\Material Design Components\\Repo\\mdlc\\force-app\\main\\default\\aura\\MaterialDesignComponent\\MaterialDesignComponent.css",
        "state": "u",
        "package": "force-app",
        "isDirectory": false,
        "isMetadataFile": false,
        "metadataType": "AuraDefinitionBundle",
        "size": 268,
        "modifiedTime": 1597839219061,
        "changeTime": 1597839219061,
        "contentHash": "f9b79d0e579e4968b8770f932c5ba9392a613028"
    },
    "F:\\Inhouse Projects\\Material Design Components\\Repo\\mdlc\\force-app\\main\\default\\aura\\MaterialDesignComponent\\MaterialDesignComponentController.js": {
        "sourcePath": "F:\\Inhouse Projects\\Material Design Components\\Repo\\mdlc\\force-app\\main\\default\\aura\\MaterialDesignComponent\\MaterialDesignComponentController.js",
        "state": "u",
        "package": "force-app",
        "isDirectory": false,
        "isMetadataFile": false,
        "metadataType": "AuraDefinitionBundle",
        "size": 594,
        "modifiedTime": 1597839675418,
        "changeTime": 1597839675418,
        "contentHash": "3d8d219f11fce4f2cad03ce8ecac3d19028c5a94"
    },
    "F:\\Inhouse Projects\\Material Design Components\\Repo\\mdlc\\force-app\\main\\default\\aura\\MaterialDesignComponent\\MaterialDesignComponentHelper.js": {
        "sourcePath": "F:\\Inhouse Projects\\Material Design Components\\Repo\\mdlc\\force-app\\main\\default\\aura\\MaterialDesignComponent\\MaterialDesignComponentHelper.js",
        "state": "u",
        "package": "force-app",
        "isDirectory": false,
        "isMetadataFile": false,
        "metadataType": "AuraDefinitionBundle",
        "size": 574,
        "modifiedTime": 1597839675418,
        "changeTime": 1597839675418,
        "contentHash": "7db7b337d53ce202d2959a54134f687256d3dca5"
    },
    "F:\\Inhouse Projects\\Material Design Components\\Repo\\mdlc\\force-app\\main\\default\\aura\\MaterialDesignComponent\\MaterialDesignComponentRenderer.js": {
        "sourcePath": "F:\\Inhouse Projects\\Material Design Components\\Repo\\mdlc\\force-app\\main\\default\\aura\\MaterialDesignComponent\\MaterialDesignComponentRenderer.js",
        "state": "u",
        "package": "force-app",
        "isDirectory": false,
        "isMetadataFile": false,
        "metadataType": "AuraDefinitionBundle",
        "size": 137,
        "modifiedTime": 1597839675418,
        "changeTime": 1597839675418,
        "contentHash": "2d13f00536f3f0fe778f4ad1362d0058d44558d9"
    },
    "F:\\Inhouse Projects\\Material Design Components\\Repo\\mdlc\\force-app\\main\\default\\aura\\MDCButton": {
        "sourcePath": "F:\\Inhouse Projects\\Material Design Components\\Repo\\mdlc\\force-app\\main\\default\\aura\\MDCButton",
        "deferContentHash": false,
        "isWorkspace": false,
        "isArtifactRoot": false,
        "state": "u",
        "package": "force-app",
        "isDirectory": true,
        "isMetadataFile": false,
        "size": 0,
        "modifiedTime": 1597732788811,
        "changeTime": 1597732788811,
        "contentHash": "e8a69ee5988264e816d3e90eba8c01bb07eac49a"
    },
    "F:\\Inhouse Projects\\Material Design Components\\Repo\\mdlc\\force-app\\main\\default\\aura\\MDCButton\\MDCButton.cmp": {
        "sourcePath": "F:\\Inhouse Projects\\Material Design Components\\Repo\\mdlc\\force-app\\main\\default\\aura\\MDCButton\\MDCButton.cmp",
        "deferContentHash": false,
        "isWorkspace": false,
        "isArtifactRoot": false,
        "state": "u",
        "package": "force-app",
        "isDirectory": false,
        "isMetadataFile": false,
        "metadataType": "AuraDefinitionBundle",
        "size": 667,
        "modifiedTime": 1597325380971,
        "changeTime": 1597325380971,
        "contentHash": "86105bf981c165efe174ee3eafe6d4cdc3ddc78e"
    },
    "F:\\Inhouse Projects\\Material Design Components\\Repo\\mdlc\\force-app\\main\\default\\aura\\MDCButton\\MDCButton.cmp-meta.xml": {
        "sourcePath": "F:\\Inhouse Projects\\Material Design Components\\Repo\\mdlc\\force-app\\main\\default\\aura\\MDCButton\\MDCButton.cmp-meta.xml",
        "deferContentHash": false,
        "isWorkspace": false,
        "isArtifactRoot": false,
        "state": "u",
        "package": "force-app",
        "isDirectory": false,
        "isMetadataFile": true,
        "metadataType": "AuraDefinitionBundle",
        "size": 239,
        "modifiedTime": 1597325380972,
        "changeTime": 1597325380972,
        "contentHash": "83ca3cd830ffd58cba4b9e0dbe08ef4035dc350f"
    },
    "F:\\Inhouse Projects\\Material Design Components\\Repo\\mdlc\\force-app\\main\\default\\aura\\MDCButton\\MDCButtonHelper.js": {
        "sourcePath": "F:\\Inhouse Projects\\Material Design Components\\Repo\\mdlc\\force-app\\main\\default\\aura\\MDCButton\\MDCButtonHelper.js",
        "deferContentHash": false,
        "isWorkspace": false,
        "isArtifactRoot": false,
        "state": "u",
        "package": "force-app",
        "isDirectory": false,
        "isMetadataFile": false,
        "metadataType": "AuraDefinitionBundle",
        "size": 467,
        "modifiedTime": 1597325380974,
        "changeTime": 1597325380974,
        "contentHash": "450f3c46247c8485a4530362e6cfe2d409a153d9"
    },
    "F:\\Inhouse Projects\\Material Design Components\\Repo\\mdlc\\force-app\\main\\default\\aura\\MDCButton\\MDCButtonRenderer.js": {
        "sourcePath": "F:\\Inhouse Projects\\Material Design Components\\Repo\\mdlc\\force-app\\main\\default\\aura\\MDCButton\\MDCButtonRenderer.js",
        "deferContentHash": false,
        "isWorkspace": false,
        "isArtifactRoot": false,
        "state": "u",
        "package": "force-app",
        "isDirectory": false,
        "isMetadataFile": false,
        "metadataType": "AuraDefinitionBundle",
        "size": 410,
        "modifiedTime": 1597325380975,
        "changeTime": 1597325380975,
        "contentHash": "bd965a45e79916d10e92e443ec0e523e21b85b11"
    },
    "F:\\Inhouse Projects\\Material Design Components\\Repo\\mdlc\\force-app\\main\\default\\aura\\MDCCheckbox": {
        "sourcePath": "F:\\Inhouse Projects\\Material Design Components\\Repo\\mdlc\\force-app\\main\\default\\aura\\MDCCheckbox",
        "deferContentHash": false,
        "isWorkspace": false,
        "isArtifactRoot": false,
        "state": "u",
        "package": "force-app",
        "isDirectory": true,
        "isMetadataFile": false,
        "size": 0,
        "modifiedTime": 1597750244224,
        "changeTime": 1597750244224,
        "contentHash": "95679f25506d0927dd580fa78668ec6f703a4c32"
    },
    "F:\\Inhouse Projects\\Material Design Components\\Repo\\mdlc\\force-app\\main\\default\\aura\\MDCCheckbox\\MDCCheckbox.cmp": {
        "sourcePath": "F:\\Inhouse Projects\\Material Design Components\\Repo\\mdlc\\force-app\\main\\default\\aura\\MDCCheckbox\\MDCCheckbox.cmp",
        "state": "u",
        "package": "force-app",
        "isDirectory": false,
        "isMetadataFile": false,
        "metadataType": "AuraDefinitionBundle",
        "size": 1456,
        "modifiedTime": 1597750095915,
        "changeTime": 1597750095915,
        "contentHash": "a55f826b894a15ee3fd9787e744fd63358a4e2ab"
    },
    "F:\\Inhouse Projects\\Material Design Components\\Repo\\mdlc\\force-app\\main\\default\\aura\\MDCCheckbox\\MDCCheckbox.cmp-meta.xml": {
        "sourcePath": "F:\\Inhouse Projects\\Material Design Components\\Repo\\mdlc\\force-app\\main\\default\\aura\\MDCCheckbox\\MDCCheckbox.cmp-meta.xml",
        "state": "u",
        "package": "force-app",
        "isDirectory": false,
        "isMetadataFile": true,
        "metadataType": "AuraDefinitionBundle",
        "size": 236,
        "modifiedTime": 1597750095909,
        "changeTime": 1597750095909,
        "contentHash": "1366fb060c2a8490476e7827041f47d2d28bd249"
    },
    "F:\\Inhouse Projects\\Material Design Components\\Repo\\mdlc\\force-app\\main\\default\\aura\\MDCCheckbox\\MDCCheckboxController.js": {
        "sourcePath": "F:\\Inhouse Projects\\Material Design Components\\Repo\\mdlc\\force-app\\main\\default\\aura\\MDCCheckbox\\MDCCheckboxController.js",
        "state": "u",
        "package": "force-app",
        "isDirectory": false,
        "isMetadataFile": false,
        "metadataType": "AuraDefinitionBundle",
        "size": 982,
        "modifiedTime": 1597750095920,
        "changeTime": 1597750095920,
        "contentHash": "773145252745cd46bb413cc549dac8b0740b0339"
    },
    "F:\\Inhouse Projects\\Material Design Components\\Repo\\mdlc\\force-app\\main\\default\\aura\\MDCCheckboxGroup": {
        "sourcePath": "F:\\Inhouse Projects\\Material Design Components\\Repo\\mdlc\\force-app\\main\\default\\aura\\MDCCheckboxGroup",
        "deferContentHash": false,
        "isWorkspace": false,
        "isArtifactRoot": false,
        "state": "u",
        "package": "force-app",
        "isDirectory": true,
        "isMetadataFile": false,
        "size": 0,
        "modifiedTime": 1597750095877,
        "changeTime": 1597750095877,
        "contentHash": "34fbc8c04f79c568fe90a79f6f3a9615fc080eb0"
    },
    "F:\\Inhouse Projects\\Material Design Components\\Repo\\mdlc\\force-app\\main\\default\\aura\\MDCCheckboxGroup\\MDCCheckboxGroup.cmp": {
        "sourcePath": "F:\\Inhouse Projects\\Material Design Components\\Repo\\mdlc\\force-app\\main\\default\\aura\\MDCCheckboxGroup\\MDCCheckboxGroup.cmp",
        "state": "u",
        "package": "force-app",
        "isDirectory": false,
        "isMetadataFile": false,
        "metadataType": "AuraDefinitionBundle",
        "size": 831,
        "modifiedTime": 1597750095879,
        "changeTime": 1597750095879,
        "contentHash": "e9b42759773cb44a81c6d20c64aa1b3c1fdc550e"
    },
    "F:\\Inhouse Projects\\Material Design Components\\Repo\\mdlc\\force-app\\main\\default\\aura\\MDCCheckboxGroup\\MDCCheckboxGroup.cmp-meta.xml": {
        "sourcePath": "F:\\Inhouse Projects\\Material Design Components\\Repo\\mdlc\\force-app\\main\\default\\aura\\MDCCheckboxGroup\\MDCCheckboxGroup.cmp-meta.xml",
        "state": "u",
        "package": "force-app",
        "isDirectory": false,
        "isMetadataFile": true,
        "metadataType": "AuraDefinitionBundle",
        "size": 242,
        "modifiedTime": 1597750095871,
        "changeTime": 1597750095871,
        "contentHash": "1d8410a0ea8a3699c20fd4cab77df5c302bdf943"
    },
    "F:\\Inhouse Projects\\Material Design Components\\Repo\\mdlc\\force-app\\main\\default\\aura\\MDCCheckboxGroup\\MDCCheckboxGroupController.js": {
        "sourcePath": "F:\\Inhouse Projects\\Material Design Components\\Repo\\mdlc\\force-app\\main\\default\\aura\\MDCCheckboxGroup\\MDCCheckboxGroupController.js",
        "state": "u",
        "package": "force-app",
        "isDirectory": false,
        "isMetadataFile": false,
        "metadataType": "AuraDefinitionBundle",
        "size": 115,
        "modifiedTime": 1597750095876,
        "changeTime": 1597750095876,
        "contentHash": "868af2ef65a773a4ab0ab3ec56a4fb4b7a4e4e46"
    },
    "F:\\Inhouse Projects\\Material Design Components\\Repo\\mdlc\\force-app\\main\\default\\aura\\MDCChoice": {
        "sourcePath": "F:\\Inhouse Projects\\Material Design Components\\Repo\\mdlc\\force-app\\main\\default\\aura\\MDCChoice",
        "deferContentHash": false,
        "isWorkspace": false,
        "isArtifactRoot": false,
        "state": "u",
        "package": "force-app",
        "isDirectory": true,
        "isMetadataFile": false,
        "size": 0,
        "modifiedTime": 1597732788892,
        "changeTime": 1597732788892,
        "contentHash": "90b10626f06ebac0af52b6f899f5f2d29bfec247"
    },
    "F:\\Inhouse Projects\\Material Design Components\\Repo\\mdlc\\force-app\\main\\default\\aura\\MDCChoice\\MDCChoice.cmp": {
        "sourcePath": "F:\\Inhouse Projects\\Material Design Components\\Repo\\mdlc\\force-app\\main\\default\\aura\\MDCChoice\\MDCChoice.cmp",
        "deferContentHash": false,
        "isWorkspace": false,
        "isArtifactRoot": false,
        "state": "u",
        "package": "force-app",
        "isDirectory": false,
        "isMetadataFile": false,
        "metadataType": "AuraDefinitionBundle",
        "size": 320,
        "modifiedTime": 1597325380983,
        "changeTime": 1597325380983,
        "contentHash": "73e9ddb0996420da32b8843b6c433b4c6b5d109c"
    },
    "F:\\Inhouse Projects\\Material Design Components\\Repo\\mdlc\\force-app\\main\\default\\aura\\MDCChoice\\MDCChoice.cmp-meta.xml": {
        "sourcePath": "F:\\Inhouse Projects\\Material Design Components\\Repo\\mdlc\\force-app\\main\\default\\aura\\MDCChoice\\MDCChoice.cmp-meta.xml",
        "deferContentHash": false,
        "isWorkspace": false,
        "isArtifactRoot": false,
        "state": "u",
        "package": "force-app",
        "isDirectory": false,
        "isMetadataFile": true,
        "metadataType": "AuraDefinitionBundle",
        "size": 246,
        "modifiedTime": 1597325380984,
        "changeTime": 1597325380984,
        "contentHash": "3c54131e5b937abfa7efce135fa8fbc8655ce041"
    },
    "F:\\Inhouse Projects\\Material Design Components\\Repo\\mdlc\\force-app\\main\\default\\aura\\MDCChoice\\MDCChoiceController.js": {
        "sourcePath": "F:\\Inhouse Projects\\Material Design Components\\Repo\\mdlc\\force-app\\main\\default\\aura\\MDCChoice\\MDCChoiceController.js",
        "deferContentHash": false,
        "isWorkspace": false,
        "isArtifactRoot": false,
        "state": "u",
        "package": "force-app",
        "isDirectory": false,
        "isMetadataFile": false,
        "metadataType": "AuraDefinitionBundle",
        "size": 198,
        "modifiedTime": 1597325380985,
        "changeTime": 1597325380985,
        "contentHash": "7cf116cf1ea786fb34afd45e6b6fe85d2de3481d"
    },
    "F:\\Inhouse Projects\\Material Design Components\\Repo\\mdlc\\force-app\\main\\default\\aura\\MDCErrorMessage": {
        "sourcePath": "F:\\Inhouse Projects\\Material Design Components\\Repo\\mdlc\\force-app\\main\\default\\aura\\MDCErrorMessage",
        "deferContentHash": false,
        "isWorkspace": false,
        "isArtifactRoot": false,
        "state": "u",
        "package": "force-app",
        "isDirectory": true,
        "isMetadataFile": false,
        "size": 0,
        "modifiedTime": 1597732788948,
        "changeTime": 1597732788948,
        "contentHash": "edc552e3f15ea530f296f8e5904f506b8dbf7c21"
    },
    "F:\\Inhouse Projects\\Material Design Components\\Repo\\mdlc\\force-app\\main\\default\\aura\\MDCErrorMessage\\MDCErrorMessage.cmp": {
        "sourcePath": "F:\\Inhouse Projects\\Material Design Components\\Repo\\mdlc\\force-app\\main\\default\\aura\\MDCErrorMessage\\MDCErrorMessage.cmp",
        "deferContentHash": false,
        "isWorkspace": false,
        "isArtifactRoot": false,
        "state": "u",
        "package": "force-app",
        "isDirectory": false,
        "isMetadataFile": false,
        "metadataType": "AuraDefinitionBundle",
        "size": 447,
        "modifiedTime": 1597325380987,
        "changeTime": 1597325380987,
        "contentHash": "eed8612c208dd9a43a14cb7029dcb7c3dddddaa4"
    },
    "F:\\Inhouse Projects\\Material Design Components\\Repo\\mdlc\\force-app\\main\\default\\aura\\MDCErrorMessage\\MDCErrorMessage.cmp-meta.xml": {
        "sourcePath": "F:\\Inhouse Projects\\Material Design Components\\Repo\\mdlc\\force-app\\main\\default\\aura\\MDCErrorMessage\\MDCErrorMessage.cmp-meta.xml",
        "deferContentHash": false,
        "isWorkspace": false,
        "isArtifactRoot": false,
        "state": "u",
        "package": "force-app",
        "isDirectory": false,
        "isMetadataFile": true,
        "metadataType": "AuraDefinitionBundle",
        "size": 259,
        "modifiedTime": 1597325380987,
        "changeTime": 1597325380987,
        "contentHash": "f66d4ae15029b622fc775274b736d1f3275b2498"
    },
    "F:\\Inhouse Projects\\Material Design Components\\Repo\\mdlc\\force-app\\main\\default\\aura\\MDCErrorMessage\\MDCErrorMessage.css": {
        "sourcePath": "F:\\Inhouse Projects\\Material Design Components\\Repo\\mdlc\\force-app\\main\\default\\aura\\MDCErrorMessage\\MDCErrorMessage.css",
        "deferContentHash": false,
        "isWorkspace": false,
        "isArtifactRoot": false,
        "state": "u",
        "package": "force-app",
        "isDirectory": false,
        "isMetadataFile": false,
        "metadataType": "AuraDefinitionBundle",
        "size": 133,
        "modifiedTime": 1597325380988,
        "changeTime": 1597325380988,
        "contentHash": "5faee8fd24c67bcb486a715bde25b74ab3c82f73"
    },
    "F:\\Inhouse Projects\\Material Design Components\\Repo\\mdlc\\force-app\\main\\default\\aura\\MDCEvent": {
        "sourcePath": "F:\\Inhouse Projects\\Material Design Components\\Repo\\mdlc\\force-app\\main\\default\\aura\\MDCEvent",
        "deferContentHash": false,
        "isWorkspace": false,
        "isArtifactRoot": false,
        "state": "u",
        "package": "force-app",
        "isDirectory": true,
        "isMetadataFile": false,
        "size": 0,
        "modifiedTime": 1597732788956,
        "changeTime": 1597732788956,
        "contentHash": "80da8a25dbc27564d8df5f22735dc865982e23ab"
    },
    "F:\\Inhouse Projects\\Material Design Components\\Repo\\mdlc\\force-app\\main\\default\\aura\\MDCEvent\\MDCEvent.evt": {
        "sourcePath": "F:\\Inhouse Projects\\Material Design Components\\Repo\\mdlc\\force-app\\main\\default\\aura\\MDCEvent\\MDCEvent.evt",
        "deferContentHash": false,
        "isWorkspace": false,
        "isArtifactRoot": false,
        "state": "u",
        "package": "force-app",
        "isDirectory": false,
        "isMetadataFile": false,
        "metadataType": "AuraDefinitionBundle",
        "size": 171,
        "modifiedTime": 1597325380990,
        "changeTime": 1597325380990,
        "contentHash": "dac043fdc52cd84c5df5932e376a661d6b8e2277"
    },
    "F:\\Inhouse Projects\\Material Design Components\\Repo\\mdlc\\force-app\\main\\default\\aura\\MDCEvent\\MDCEvent.evt-meta.xml": {
        "sourcePath": "F:\\Inhouse Projects\\Material Design Components\\Repo\\mdlc\\force-app\\main\\default\\aura\\MDCEvent\\MDCEvent.evt-meta.xml",
        "deferContentHash": false,
        "isWorkspace": false,
        "isArtifactRoot": false,
        "state": "u",
        "package": "force-app",
        "isDirectory": false,
        "isMetadataFile": true,
        "metadataType": "AuraDefinitionBundle",
        "size": 236,
        "modifiedTime": 1597325380991,
        "changeTime": 1597325380991,
        "contentHash": "652373561015cc34683bce2708188186600aa5cf"
    },
    "F:\\Inhouse Projects\\Material Design Components\\Repo\\mdlc\\force-app\\main\\default\\aura\\MDCInput": {
        "sourcePath": "F:\\Inhouse Projects\\Material Design Components\\Repo\\mdlc\\force-app\\main\\default\\aura\\MDCInput",
        "deferContentHash": false,
        "isWorkspace": false,
        "isArtifactRoot": false,
        "state": "u",
        "package": "force-app",
        "isDirectory": true,
        "isMetadataFile": false,
        "size": 0,
        "modifiedTime": 1597734444711,
        "changeTime": 1597734444711,
        "contentHash": "16ead38a0a1f77addbcf98056307cb5cf432e5d6"
    },
    "F:\\Inhouse Projects\\Material Design Components\\Repo\\mdlc\\force-app\\main\\default\\aura\\MDCInput\\MDCInput.cmp": {
        "sourcePath": "F:\\Inhouse Projects\\Material Design Components\\Repo\\mdlc\\force-app\\main\\default\\aura\\MDCInput\\MDCInput.cmp",
        "metadataType": "AuraDefinitionBundle",
        "package": "force-app",
        "deferContentHash": true,
        "state": "u",
        "isDirectory": false,
        "isMetadataFile": false,
        "size": 1231,
        "modifiedTime": 1597734881440,
        "changeTime": 1597734881440,
        "contentHash": "4a35d7819a65f3af70aee0a8db94c2244c12e4e8"
    },
    "F:\\Inhouse Projects\\Material Design Components\\Repo\\mdlc\\force-app\\main\\default\\aura\\MDCInput\\MDCInput.cmp-meta.xml": {
        "sourcePath": "F:\\Inhouse Projects\\Material Design Components\\Repo\\mdlc\\force-app\\main\\default\\aura\\MDCInput\\MDCInput.cmp-meta.xml",
        "deferContentHash": false,
        "isWorkspace": false,
        "isArtifactRoot": false,
        "state": "u",
        "package": "force-app",
        "isDirectory": false,
        "isMetadataFile": true,
        "metadataType": "AuraDefinitionBundle",
        "size": 245,
        "modifiedTime": 1597325380994,
        "changeTime": 1597325380994,
        "contentHash": "ad2a925702d338dc8c5bcac6fe7831c4a2788304"
    },
    "F:\\Inhouse Projects\\Material Design Components\\Repo\\mdlc\\force-app\\main\\default\\aura\\MDCInput\\MDCInputController.js": {
        "sourcePath": "F:\\Inhouse Projects\\Material Design Components\\Repo\\mdlc\\force-app\\main\\default\\aura\\MDCInput\\MDCInputController.js",
        "deferContentHash": false,
        "isWorkspace": false,
        "isArtifactRoot": false,
        "state": "u",
        "package": "force-app",
        "isDirectory": false,
        "isMetadataFile": false,
        "metadataType": "AuraDefinitionBundle",
        "size": 1709,
        "modifiedTime": 1597325380995,
        "changeTime": 1597325380995,
        "contentHash": "a12de8186cc3a8ddfc823483f971a8cff8792b49"
    },
    "F:\\Inhouse Projects\\Material Design Components\\Repo\\mdlc\\force-app\\main\\default\\aura\\MDCInput\\MDCInputHelper.js": {
        "sourcePath": "F:\\Inhouse Projects\\Material Design Components\\Repo\\mdlc\\force-app\\main\\default\\aura\\MDCInput\\MDCInputHelper.js",
        "deferContentHash": false,
        "isWorkspace": false,
        "isArtifactRoot": false,
        "state": "u",
        "package": "force-app",
        "isDirectory": false,
        "isMetadataFile": false,
        "metadataType": "AuraDefinitionBundle",
        "size": 1748,
        "modifiedTime": 1597325380996,
        "changeTime": 1597325380996,
        "contentHash": "1c5f4379e1921abaea465b16f800862742e29c91"
    },
    "F:\\Inhouse Projects\\Material Design Components\\Repo\\mdlc\\force-app\\main\\default\\aura\\MDCInputField": {
        "sourcePath": "F:\\Inhouse Projects\\Material Design Components\\Repo\\mdlc\\force-app\\main\\default\\aura\\MDCInputField",
        "deferContentHash": false,
        "isWorkspace": false,
        "isArtifactRoot": false,
        "state": "u",
        "package": "force-app",
        "isDirectory": true,
        "isMetadataFile": false,
        "size": 0,
        "modifiedTime": 1597750095934,
        "changeTime": 1597750095934,
        "contentHash": "71722188440033efd490488ee8609acf437790e6"
    },
    "F:\\Inhouse Projects\\Material Design Components\\Repo\\mdlc\\force-app\\main\\default\\aura\\MDCInputField\\MDCInputField.cmp": {
        "sourcePath": "F:\\Inhouse Projects\\Material Design Components\\Repo\\mdlc\\force-app\\main\\default\\aura\\MDCInputField\\MDCInputField.cmp",
        "state": "u",
        "package": "force-app",
        "isDirectory": false,
        "isMetadataFile": false,
        "metadataType": "AuraDefinitionBundle",
        "size": 3167,
        "modifiedTime": 1597750095931,
        "changeTime": 1597750095931,
        "contentHash": "c646d9ca938e39270b2bb171be3f51b9be5c19a8"
    },
    "F:\\Inhouse Projects\\Material Design Components\\Repo\\mdlc\\force-app\\main\\default\\aura\\MDCInputField\\MDCInputField.cmp-meta.xml": {
        "sourcePath": "F:\\Inhouse Projects\\Material Design Components\\Repo\\mdlc\\force-app\\main\\default\\aura\\MDCInputField\\MDCInputField.cmp-meta.xml",
        "state": "u",
        "package": "force-app",
        "isDirectory": false,
        "isMetadataFile": true,
        "metadataType": "AuraDefinitionBundle",
        "size": 238,
        "modifiedTime": 1597750095923,
        "changeTime": 1597750095923,
        "contentHash": "84e862409ae4fd3ad9587e5ec56337f01d0e5199"
    },
    "F:\\Inhouse Projects\\Material Design Components\\Repo\\mdlc\\force-app\\main\\default\\aura\\MDCInputField\\MDCInputFieldRenderer.js": {
        "sourcePath": "F:\\Inhouse Projects\\Material Design Components\\Repo\\mdlc\\force-app\\main\\default\\aura\\MDCInputField\\MDCInputFieldRenderer.js",
        "state": "u",
        "package": "force-app",
        "isDirectory": false,
        "isMetadataFile": false,
        "metadataType": "AuraDefinitionBundle",
        "size": 280,
        "modifiedTime": 1597750095942,
        "changeTime": 1597750095942,
        "contentHash": "ff4aa784914c7eec68cb6214c4eaf5f7718769f5"
    },
    "F:\\Inhouse Projects\\Material Design Components\\Repo\\mdlc\\force-app\\main\\default\\aura\\MDCInputFile": {
        "sourcePath": "F:\\Inhouse Projects\\Material Design Components\\Repo\\mdlc\\force-app\\main\\default\\aura\\MDCInputFile",
        "deferContentHash": false,
        "isWorkspace": false,
        "isArtifactRoot": false,
        "state": "u",
        "package": "force-app",
        "isDirectory": true,
        "isMetadataFile": false,
        "size": 0,
        "modifiedTime": 1597732788988,
        "changeTime": 1597732788988,
        "contentHash": "d616f81bddc99903aab3ad3139c04395ec6e0d0b"
    },
    "F:\\Inhouse Projects\\Material Design Components\\Repo\\mdlc\\force-app\\main\\default\\aura\\MDCInputFile\\MDCInputFile.cmp": {
        "sourcePath": "F:\\Inhouse Projects\\Material Design Components\\Repo\\mdlc\\force-app\\main\\default\\aura\\MDCInputFile\\MDCInputFile.cmp",
        "deferContentHash": false,
        "isWorkspace": false,
        "isArtifactRoot": false,
        "state": "u",
        "package": "force-app",
        "isDirectory": false,
        "isMetadataFile": false,
        "metadataType": "AuraDefinitionBundle",
        "size": 1203,
        "modifiedTime": 1597325381001,
        "changeTime": 1597325381001,
        "contentHash": "db9c67a30e3f4464b024ed8be4231012644d1e47"
    },
    "F:\\Inhouse Projects\\Material Design Components\\Repo\\mdlc\\force-app\\main\\default\\aura\\MDCInputFile\\MDCInputFile.cmp-meta.xml": {
        "sourcePath": "F:\\Inhouse Projects\\Material Design Components\\Repo\\mdlc\\force-app\\main\\default\\aura\\MDCInputFile\\MDCInputFile.cmp-meta.xml",
        "deferContentHash": false,
        "isWorkspace": false,
        "isArtifactRoot": false,
        "state": "u",
        "package": "force-app",
        "isDirectory": false,
        "isMetadataFile": true,
        "metadataType": "AuraDefinitionBundle",
        "size": 243,
        "modifiedTime": 1597325381002,
        "changeTime": 1597325381002,
        "contentHash": "ba791152cb4a1f2894ca48735ec17f209f5bbb26"
    },
    "F:\\Inhouse Projects\\Material Design Components\\Repo\\mdlc\\force-app\\main\\default\\aura\\MDCInputFile\\MDCInputFile.css": {
        "sourcePath": "F:\\Inhouse Projects\\Material Design Components\\Repo\\mdlc\\force-app\\main\\default\\aura\\MDCInputFile\\MDCInputFile.css",
        "deferContentHash": false,
        "isWorkspace": false,
        "isArtifactRoot": false,
        "state": "u",
        "package": "force-app",
        "isDirectory": false,
        "isMetadataFile": false,
        "metadataType": "AuraDefinitionBundle",
        "size": 264,
        "modifiedTime": 1597325381003,
        "changeTime": 1597325381003,
        "contentHash": "0c838747d32ff35616a33fa29bef0471fa762622"
    },
    "F:\\Inhouse Projects\\Material Design Components\\Repo\\mdlc\\force-app\\main\\default\\aura\\MDCInputFile\\MDCInputFileController.js": {
        "sourcePath": "F:\\Inhouse Projects\\Material Design Components\\Repo\\mdlc\\force-app\\main\\default\\aura\\MDCInputFile\\MDCInputFileController.js",
        "deferContentHash": false,
        "isWorkspace": false,
        "isArtifactRoot": false,
        "state": "u",
        "package": "force-app",
        "isDirectory": false,
        "isMetadataFile": false,
        "metadataType": "AuraDefinitionBundle",
        "size": 1426,
        "modifiedTime": 1597325381004,
        "changeTime": 1597325381004,
        "contentHash": "5018a08741643962fa3c92c73970ba8421abd0ac"
    },
    "F:\\Inhouse Projects\\Material Design Components\\Repo\\mdlc\\force-app\\main\\default\\aura\\MDCInputFile\\MDCInputFileHelper.js": {
        "sourcePath": "F:\\Inhouse Projects\\Material Design Components\\Repo\\mdlc\\force-app\\main\\default\\aura\\MDCInputFile\\MDCInputFileHelper.js",
        "deferContentHash": false,
        "isWorkspace": false,
        "isArtifactRoot": false,
        "state": "u",
        "package": "force-app",
        "isDirectory": false,
        "isMetadataFile": false,
        "metadataType": "AuraDefinitionBundle",
        "size": 2856,
        "modifiedTime": 1597325381005,
        "changeTime": 1597325381005,
        "contentHash": "9e80ed761d5ee3e4c332795b8fef3b8e6b681fad"
    },
    "F:\\Inhouse Projects\\Material Design Components\\Repo\\mdlc\\force-app\\main\\default\\aura\\MDCMultipleChoiceGroup": {
        "sourcePath": "F:\\Inhouse Projects\\Material Design Components\\Repo\\mdlc\\force-app\\main\\default\\aura\\MDCMultipleChoiceGroup",
        "deferContentHash": false,
        "isWorkspace": false,
        "isArtifactRoot": false,
        "state": "u",
        "package": "force-app",
        "isDirectory": true,
        "isMetadataFile": false,
        "size": 0,
        "modifiedTime": 1597732788996,
        "changeTime": 1597732788996,
        "contentHash": "1aeda049c5aa888def28ec9c9ac94adad6dbdb7c"
    },
    "F:\\Inhouse Projects\\Material Design Components\\Repo\\mdlc\\force-app\\main\\default\\aura\\MDCMultipleChoiceGroup\\MDCMultipleChoiceGroup.cmp": {
        "sourcePath": "F:\\Inhouse Projects\\Material Design Components\\Repo\\mdlc\\force-app\\main\\default\\aura\\MDCMultipleChoiceGroup\\MDCMultipleChoiceGroup.cmp",
        "deferContentHash": false,
        "isWorkspace": false,
        "isArtifactRoot": false,
        "state": "u",
        "package": "force-app",
        "isDirectory": false,
        "isMetadataFile": false,
        "metadataType": "AuraDefinitionBundle",
        "size": 437,
        "modifiedTime": 1597325381006,
        "changeTime": 1597325381006,
        "contentHash": "1e52c212993a5e8c45cbeffe64fdc1c091c5a4a2"
    },
    "F:\\Inhouse Projects\\Material Design Components\\Repo\\mdlc\\force-app\\main\\default\\aura\\MDCMultipleChoiceGroup\\MDCMultipleChoiceGroup.cmp-meta.xml": {
        "sourcePath": "F:\\Inhouse Projects\\Material Design Components\\Repo\\mdlc\\force-app\\main\\default\\aura\\MDCMultipleChoiceGroup\\MDCMultipleChoiceGroup.cmp-meta.xml",
        "deferContentHash": false,
        "isWorkspace": false,
        "isArtifactRoot": false,
        "state": "u",
        "package": "force-app",
        "isDirectory": false,
        "isMetadataFile": true,
        "metadataType": "AuraDefinitionBundle",
        "size": 272,
        "modifiedTime": 1597325381007,
        "changeTime": 1597325381007,
        "contentHash": "8b5ae76193843cb205a869a63c425c7716aff6ea"
    },
    "F:\\Inhouse Projects\\Material Design Components\\Repo\\mdlc\\force-app\\main\\default\\aura\\MDCMultipleChoiceGroup\\MDCMultipleChoiceGroupHelper.js": {
        "sourcePath": "F:\\Inhouse Projects\\Material Design Components\\Repo\\mdlc\\force-app\\main\\default\\aura\\MDCMultipleChoiceGroup\\MDCMultipleChoiceGroupHelper.js",
        "deferContentHash": false,
        "isWorkspace": false,
        "isArtifactRoot": false,
        "state": "u",
        "package": "force-app",
        "isDirectory": false,
        "isMetadataFile": false,
        "metadataType": "AuraDefinitionBundle",
        "size": 396,
        "modifiedTime": 1597325381009,
        "changeTime": 1597325381009,
        "contentHash": "dc5ad997034a7be053106d60431f83a82a6594a6"
    },
    "F:\\Inhouse Projects\\Material Design Components\\Repo\\mdlc\\force-app\\main\\default\\aura\\MDCRadioButton": {
        "sourcePath": "F:\\Inhouse Projects\\Material Design Components\\Repo\\mdlc\\force-app\\main\\default\\aura\\MDCRadioButton",
        "deferContentHash": false,
        "isWorkspace": false,
        "isArtifactRoot": false,
        "state": "u",
        "package": "force-app",
        "isDirectory": true,
        "isMetadataFile": false,
        "size": 0,
        "modifiedTime": 1597732789004,
        "changeTime": 1597732789004,
        "contentHash": "0522e1f2b5b8af7d2ac5cb5088e656bf01869dbd"
    },
    "F:\\Inhouse Projects\\Material Design Components\\Repo\\mdlc\\force-app\\main\\default\\aura\\MDCRadioButton\\MDCRadioButton.cmp": {
        "sourcePath": "F:\\Inhouse Projects\\Material Design Components\\Repo\\mdlc\\force-app\\main\\default\\aura\\MDCRadioButton\\MDCRadioButton.cmp",
        "deferContentHash": false,
        "isWorkspace": false,
        "isArtifactRoot": false,
        "state": "u",
        "package": "force-app",
        "isDirectory": false,
        "isMetadataFile": false,
        "metadataType": "AuraDefinitionBundle",
        "size": 1141,
        "modifiedTime": 1597325381011,
        "changeTime": 1597325381011,
        "contentHash": "c3d4164e5a682553a41d9619a9a8b9addda282de"
    },
    "F:\\Inhouse Projects\\Material Design Components\\Repo\\mdlc\\force-app\\main\\default\\aura\\MDCRadioButton\\MDCRadioButton.cmp-meta.xml": {
        "sourcePath": "F:\\Inhouse Projects\\Material Design Components\\Repo\\mdlc\\force-app\\main\\default\\aura\\MDCRadioButton\\MDCRadioButton.cmp-meta.xml",
        "deferContentHash": false,
        "isWorkspace": false,
        "isArtifactRoot": false,
        "state": "u",
        "package": "force-app",
        "isDirectory": false,
        "isMetadataFile": true,
        "metadataType": "AuraDefinitionBundle",
        "size": 245,
        "modifiedTime": 1597325381012,
        "changeTime": 1597325381012,
        "contentHash": "555f30160594a975e141d0c2e434f91eed1290e9"
    },
    "F:\\Inhouse Projects\\Material Design Components\\Repo\\mdlc\\force-app\\main\\default\\aura\\MDCRadioButton\\MDCRadioButtonController.js": {
        "sourcePath": "F:\\Inhouse Projects\\Material Design Components\\Repo\\mdlc\\force-app\\main\\default\\aura\\MDCRadioButton\\MDCRadioButtonController.js",
        "deferContentHash": false,
        "isWorkspace": false,
        "isArtifactRoot": false,
        "state": "u",
        "package": "force-app",
        "isDirectory": false,
        "isMetadataFile": false,
        "metadataType": "AuraDefinitionBundle",
        "size": 111,
        "modifiedTime": 1597325381013,
        "changeTime": 1597325381013,
        "contentHash": "1f0e2e50cbc69a063a8d2a042f40665626e15f55"
    },
    "F:\\Inhouse Projects\\Material Design Components\\Repo\\mdlc\\force-app\\main\\default\\aura\\MDCRadioGroup": {
        "sourcePath": "F:\\Inhouse Projects\\Material Design Components\\Repo\\mdlc\\force-app\\main\\default\\aura\\MDCRadioGroup",
        "deferContentHash": false,
        "isWorkspace": false,
        "isArtifactRoot": false,
        "state": "u",
        "package": "force-app",
        "isDirectory": true,
        "isMetadataFile": false,
        "size": 0,
        "modifiedTime": 1597732789020,
        "changeTime": 1597732789020,
        "contentHash": "f4f30900d74c59062e2020502ee561b4a3536a84"
    },
    "F:\\Inhouse Projects\\Material Design Components\\Repo\\mdlc\\force-app\\main\\default\\aura\\MDCRadioGroup\\MDCRadioGroup.cmp": {
        "sourcePath": "F:\\Inhouse Projects\\Material Design Components\\Repo\\mdlc\\force-app\\main\\default\\aura\\MDCRadioGroup\\MDCRadioGroup.cmp",
        "deferContentHash": false,
        "isWorkspace": false,
        "isArtifactRoot": false,
        "state": "u",
        "package": "force-app",
        "isDirectory": false,
        "isMetadataFile": false,
        "metadataType": "AuraDefinitionBundle",
        "size": 1088,
        "modifiedTime": 1597325381015,
        "changeTime": 1597325381015,
        "contentHash": "9e0e0ee234e7328877fbd97f2d99e6550a67ed4a"
    },
    "F:\\Inhouse Projects\\Material Design Components\\Repo\\mdlc\\force-app\\main\\default\\aura\\MDCRadioGroup\\MDCRadioGroup.cmp-meta.xml": {
        "sourcePath": "F:\\Inhouse Projects\\Material Design Components\\Repo\\mdlc\\force-app\\main\\default\\aura\\MDCRadioGroup\\MDCRadioGroup.cmp-meta.xml",
        "deferContentHash": false,
        "isWorkspace": false,
        "isArtifactRoot": false,
        "state": "u",
        "package": "force-app",
        "isDirectory": false,
        "isMetadataFile": true,
        "metadataType": "AuraDefinitionBundle",
        "size": 244,
        "modifiedTime": 1597325381016,
        "changeTime": 1597325381016,
        "contentHash": "fd81106958cd13a7ebd7311428cc0b82edc30981"
    },
    "F:\\Inhouse Projects\\Material Design Components\\Repo\\mdlc\\force-app\\main\\default\\aura\\MDCRadioGroup\\MDCRadioGroupController.js": {
        "sourcePath": "F:\\Inhouse Projects\\Material Design Components\\Repo\\mdlc\\force-app\\main\\default\\aura\\MDCRadioGroup\\MDCRadioGroupController.js",
        "deferContentHash": false,
        "isWorkspace": false,
        "isArtifactRoot": false,
        "state": "u",
        "package": "force-app",
        "isDirectory": false,
        "isMetadataFile": false,
        "metadataType": "AuraDefinitionBundle",
        "size": 105,
        "modifiedTime": 1597325381017,
        "changeTime": 1597325381017,
        "contentHash": "f4ade2159e694e4e4044f745a5e1cdcacedd12fc"
    },
    "F:\\Inhouse Projects\\Material Design Components\\Repo\\mdlc\\force-app\\main\\default\\aura\\MDCRadioGroup\\MDCRadioGroupHelper.js": {
        "sourcePath": "F:\\Inhouse Projects\\Material Design Components\\Repo\\mdlc\\force-app\\main\\default\\aura\\MDCRadioGroup\\MDCRadioGroupHelper.js",
        "deferContentHash": false,
        "isWorkspace": false,
        "isArtifactRoot": false,
        "state": "u",
        "package": "force-app",
        "isDirectory": false,
        "isMetadataFile": false,
        "metadataType": "AuraDefinitionBundle",
        "size": 267,
        "modifiedTime": 1597325381018,
        "changeTime": 1597325381018,
        "contentHash": "ae19d9ea195d0827c1f03b9e5787e29da8e52ca5"
    },
    "F:\\Inhouse Projects\\Material Design Components\\Repo\\mdlc\\force-app\\main\\default\\aura\\MDCSelectMenu": {
        "sourcePath": "F:\\Inhouse Projects\\Material Design Components\\Repo\\mdlc\\force-app\\main\\default\\aura\\MDCSelectMenu",
        "deferContentHash": false,
        "isWorkspace": false,
        "isArtifactRoot": false,
        "state": "u",
        "package": "force-app",
        "isDirectory": true,
        "isMetadataFile": false,
        "size": 0,
        "modifiedTime": 1597732789036,
        "changeTime": 1597732789036,
        "contentHash": "02417fe853afde34cdc4897c6cc54a252595239b"
    },
    "F:\\Inhouse Projects\\Material Design Components\\Repo\\mdlc\\force-app\\main\\default\\aura\\MDCSelectMenu\\MDCSelectMenu.cmp": {
        "sourcePath": "F:\\Inhouse Projects\\Material Design Components\\Repo\\mdlc\\force-app\\main\\default\\aura\\MDCSelectMenu\\MDCSelectMenu.cmp",
        "deferContentHash": false,
        "isWorkspace": false,
        "isArtifactRoot": false,
        "state": "u",
        "package": "force-app",
        "isDirectory": false,
        "isMetadataFile": false,
        "metadataType": "AuraDefinitionBundle",
        "size": 3655,
        "modifiedTime": 1597325381020,
        "changeTime": 1597325381020,
        "contentHash": "d00c520d7de5197cc8ceedd48943d93925f1fa66"
    },
    "F:\\Inhouse Projects\\Material Design Components\\Repo\\mdlc\\force-app\\main\\default\\aura\\MDCSelectMenu\\MDCSelectMenu.cmp-meta.xml": {
        "sourcePath": "F:\\Inhouse Projects\\Material Design Components\\Repo\\mdlc\\force-app\\main\\default\\aura\\MDCSelectMenu\\MDCSelectMenu.cmp-meta.xml",
        "deferContentHash": false,
        "isWorkspace": false,
        "isArtifactRoot": false,
        "state": "u",
        "package": "force-app",
        "isDirectory": false,
        "isMetadataFile": true,
        "metadataType": "AuraDefinitionBundle",
        "size": 244,
        "modifiedTime": 1597325381021,
        "changeTime": 1597325381021,
        "contentHash": "457c9643fe26511cc3aea1b22e071e5c12eb46e8"
    },
    "F:\\Inhouse Projects\\Material Design Components\\Repo\\mdlc\\force-app\\main\\default\\aura\\MDCSelectMenu\\MDCSelectMenuController.js": {
        "sourcePath": "F:\\Inhouse Projects\\Material Design Components\\Repo\\mdlc\\force-app\\main\\default\\aura\\MDCSelectMenu\\MDCSelectMenuController.js",
        "deferContentHash": false,
        "isWorkspace": false,
        "isArtifactRoot": false,
        "state": "u",
        "package": "force-app",
        "isDirectory": false,
        "isMetadataFile": false,
        "metadataType": "AuraDefinitionBundle",
        "size": 427,
        "modifiedTime": 1597325381022,
        "changeTime": 1597325381022,
        "contentHash": "ebdc8f44e44e59132613365eb96f69138252d328"
    },
    "F:\\Inhouse Projects\\Material Design Components\\Repo\\mdlc\\force-app\\main\\default\\aura\\MDCSelectMenu\\MDCSelectMenuHelper.js": {
        "sourcePath": "F:\\Inhouse Projects\\Material Design Components\\Repo\\mdlc\\force-app\\main\\default\\aura\\MDCSelectMenu\\MDCSelectMenuHelper.js",
        "deferContentHash": false,
        "isWorkspace": false,
        "isArtifactRoot": false,
        "state": "u",
        "package": "force-app",
        "isDirectory": false,
        "isMetadataFile": false,
        "metadataType": "AuraDefinitionBundle",
        "size": 1960,
        "modifiedTime": 1597325381024,
        "changeTime": 1597325381024,
        "contentHash": "1011eded6c0483e5961e0b5307323aa539aceae4"
    },
    "F:\\Inhouse Projects\\Material Design Components\\Repo\\mdlc\\force-app\\main\\default\\aura\\MDCSelectMenu\\MDCSelectMenuRenderer.js": {
        "sourcePath": "F:\\Inhouse Projects\\Material Design Components\\Repo\\mdlc\\force-app\\main\\default\\aura\\MDCSelectMenu\\MDCSelectMenuRenderer.js",
        "deferContentHash": false,
        "isWorkspace": false,
        "isArtifactRoot": false,
        "state": "u",
        "package": "force-app",
        "isDirectory": false,
        "isMetadataFile": false,
        "metadataType": "AuraDefinitionBundle",
        "size": 339,
        "modifiedTime": 1597325381026,
        "changeTime": 1597325381026,
        "contentHash": "86a546f784e44289d25cd013159ea80269637890"
    },
    "F:\\Inhouse Projects\\Material Design Components\\Repo\\mdlc\\force-app\\main\\default\\lwc": {
        "sourcePath": "F:\\Inhouse Projects\\Material Design Components\\Repo\\mdlc\\force-app\\main\\default\\lwc",
        "state": "u",
        "package": "force-app",
        "isDirectory": true,
        "isMetadataFile": false,
        "size": 0,
        "modifiedTime": 1597839219121,
        "changeTime": 1597839219121,
        "contentHash": "0cd42521472626b11e5e44ef5016905dac4d7ea7"
    },
    "F:\\Inhouse Projects\\Material Design Components\\Repo\\mdlc\\force-app\\main\\default\\lwc\\mdcDate": {
        "sourcePath": "F:\\Inhouse Projects\\Material Design Components\\Repo\\mdlc\\force-app\\main\\default\\lwc\\mdcDate",
        "deferContentHash": false,
        "isWorkspace": false,
        "isArtifactRoot": false,
        "state": "u",
        "package": "force-app",
        "isDirectory": true,
        "isMetadataFile": false,
        "size": 0,
        "modifiedTime": 1597732789052,
        "changeTime": 1597732789052,
        "contentHash": "581d2457c50e9d786f8c5dbdfaf9cd6dc8b0f290"
    },
    "F:\\Inhouse Projects\\Material Design Components\\Repo\\mdlc\\force-app\\main\\default\\lwc\\mdcDate\\mdcDate.html": {
        "sourcePath": "F:\\Inhouse Projects\\Material Design Components\\Repo\\mdlc\\force-app\\main\\default\\lwc\\mdcDate\\mdcDate.html",
        "deferContentHash": false,
        "isWorkspace": false,
        "isArtifactRoot": false,
        "state": "u",
        "package": "force-app",
        "isDirectory": false,
        "isMetadataFile": false,
        "metadataType": "LightningComponentBundle",
        "size": 1092,
        "modifiedTime": 1597325381042,
        "changeTime": 1597325381042,
        "contentHash": "131b8e11647cadb98f2949703036f8d32f884ee1"
    },
    "F:\\Inhouse Projects\\Material Design Components\\Repo\\mdlc\\force-app\\main\\default\\lwc\\mdcDate\\mdcDate.js": {
        "sourcePath": "F:\\Inhouse Projects\\Material Design Components\\Repo\\mdlc\\force-app\\main\\default\\lwc\\mdcDate\\mdcDate.js",
        "deferContentHash": false,
        "isWorkspace": false,
        "isArtifactRoot": false,
        "state": "u",
        "package": "force-app",
        "isDirectory": false,
        "isMetadataFile": false,
        "metadataType": "LightningComponentBundle",
        "size": 2252,
        "modifiedTime": 1597727465106,
        "changeTime": 1597727465106,
        "contentHash": "beea3a00decb9db241375aeb06473925c7779674"
    },
    "F:\\Inhouse Projects\\Material Design Components\\Repo\\mdlc\\force-app\\main\\default\\lwc\\mdcDate\\mdcDate.js-meta.xml": {
        "sourcePath": "F:\\Inhouse Projects\\Material Design Components\\Repo\\mdlc\\force-app\\main\\default\\lwc\\mdcDate\\mdcDate.js-meta.xml",
        "deferContentHash": false,
        "isWorkspace": false,
        "isArtifactRoot": false,
        "state": "u",
        "package": "force-app",
        "isDirectory": false,
        "isMetadataFile": true,
        "metadataType": "LightningComponentBundle",
        "size": 214,
        "modifiedTime": 1597325381045,
        "changeTime": 1597325381045,
        "contentHash": "d5b1e66ffa926171f2c0a92c181ad58c54c81570"
    },
    "F:\\Inhouse Projects\\Material Design Components\\Repo\\mdlc\\force-app\\main\\default\\staticresources": {
        "sourcePath": "F:\\Inhouse Projects\\Material Design Components\\Repo\\mdlc\\force-app\\main\\default\\staticresources",
        "state": "u",
        "package": "force-app",
        "isDirectory": true,
        "isMetadataFile": false,
        "size": 0,
        "modifiedTime": 1597839218988,
        "changeTime": 1597839218988,
        "contentHash": "f0cd5b7ffae1e80eb569f7178ce9d8884fc1287e"
    },
    "F:\\Inhouse Projects\\Material Design Components\\Repo\\mdlc\\force-app\\main\\default\\staticresources\\MaterialDesign": {
        "sourcePath": "F:\\Inhouse Projects\\Material Design Components\\Repo\\mdlc\\force-app\\main\\default\\staticresources\\MaterialDesign",
        "deferContentHash": false,
        "isWorkspace": false,
        "isArtifactRoot": false,
        "state": "u",
        "package": "force-app",
        "isDirectory": true,
        "isMetadataFile": false,
        "size": 0,
        "modifiedTime": 1597733367682,
        "changeTime": 1597733367682,
        "contentHash": "5074802b51a57456c7dec7c9440b7f84b595c8c8"
    },
    "F:\\Inhouse Projects\\Material Design Components\\Repo\\mdlc\\force-app\\main\\default\\staticresources\\MaterialDesign\\fonts.woff2": {
        "sourcePath": "F:\\Inhouse Projects\\Material Design Components\\Repo\\mdlc\\force-app\\main\\default\\staticresources\\MaterialDesign\\fonts.woff2",
        "deferContentHash": false,
        "isWorkspace": false,
        "isArtifactRoot": false,
        "state": "u",
        "package": "force-app",
        "isDirectory": false,
        "isMetadataFile": false,
        "metadataType": "StaticResource",
        "size": 81008,
        "modifiedTime": 1597325381060,
        "changeTime": 1597325381060,
        "contentHash": "334f2468c77b0f935cdd685b6e283320bc7bb6f2"
    },
    "F:\\Inhouse Projects\\Material Design Components\\Repo\\mdlc\\force-app\\main\\default\\staticresources\\MaterialDesign\\material.min.css": {
        "sourcePath": "F:\\Inhouse Projects\\Material Design Components\\Repo\\mdlc\\force-app\\main\\default\\staticresources\\MaterialDesign\\material.min.css",
        "deferContentHash": false,
        "isWorkspace": false,
        "isArtifactRoot": false,
        "state": "u",
        "package": "force-app",
        "isDirectory": false,
        "isMetadataFile": false,
        "metadataType": "StaticResource",
        "size": 647308,
        "modifiedTime": 1597325381065,
        "changeTime": 1597325381065,
        "contentHash": "f867f6420b7d2ca56056aa49ce2560f7e9e3fefa"
    },
    "F:\\Inhouse Projects\\Material Design Components\\Repo\\mdlc\\force-app\\main\\default\\staticresources\\MaterialDesign\\material.min.js": {
        "sourcePath": "F:\\Inhouse Projects\\Material Design Components\\Repo\\mdlc\\force-app\\main\\default\\staticresources\\MaterialDesign\\material.min.js",
        "deferContentHash": false,
        "isWorkspace": false,
        "isArtifactRoot": false,
        "state": "u",
        "package": "force-app",
        "isDirectory": false,
        "isMetadataFile": false,
        "metadataType": "StaticResource",
        "size": 327595,
        "modifiedTime": 1597325381069,
        "changeTime": 1597325381069,
        "contentHash": "a446e441bfc7ee66e79c33a5024b8a73201ebfe1"
    },
    "F:\\Inhouse Projects\\Material Design Components\\Repo\\mdlc\\force-app\\main\\default\\staticresources\\MaterialDesign\\Roboto-Regular.ttf": {
        "sourcePath": "F:\\Inhouse Projects\\Material Design Components\\Repo\\mdlc\\force-app\\main\\default\\staticresources\\MaterialDesign\\Roboto-Regular.ttf",
        "deferContentHash": false,
        "isWorkspace": false,
        "isArtifactRoot": false,
        "state": "u",
        "package": "force-app",
        "isDirectory": false,
        "isMetadataFile": false,
        "metadataType": "StaticResource",
        "size": 171272,
        "modifiedTime": 1597733367849,
        "changeTime": 1597733367849,
        "contentHash": "096c9245b6a192d1403a82848e104a65f578a8ec"
    },
    "F:\\Inhouse Projects\\Material Design Components\\Repo\\mdlc": {
        "sourcePath": "F:\\Inhouse Projects\\Material Design Components\\Repo\\mdlc",
        "deferContentHash": false,
        "isWorkspace": true,
        "isArtifactRoot": false,
        "state": "u",
        "package": null,
        "isDirectory": true,
        "isMetadataFile": false,
        "size": 0,
        "modifiedTime": 1597732949959,
        "changeTime": 1597732949959,
        "contentHash": "c248c0fcf4242beea127470c300f425a242a92af"
    },
    "F:\\Inhouse Projects\\Material Design Components\\Repo\\mdlc\\force-app\\main\\default\\aura\\svg": {
        "sourcePath": "F:\\Inhouse Projects\\Material Design Components\\Repo\\mdlc\\force-app\\main\\default\\aura\\svg",
        "deferContentHash": false,
        "state": "u",
        "package": "force-app",
        "isDirectory": true,
        "isMetadataFile": false,
        "size": 0,
        "modifiedTime": 1597733867393,
        "changeTime": 1597733867393,
        "contentHash": "720b3c77a742cbc34aafeb9ff97a80b57e08d9b6"
    },
    "F:\\Inhouse Projects\\Material Design Components\\Repo\\mdlc\\force-app\\main\\default\\aura\\svg\\svg.cmp": {
        "sourcePath": "F:\\Inhouse Projects\\Material Design Components\\Repo\\mdlc\\force-app\\main\\default\\aura\\svg\\svg.cmp",
        "deferContentHash": false,
        "state": "u",
        "package": "force-app",
        "isDirectory": false,
        "isMetadataFile": false,
        "metadataType": "AuraDefinitionBundle",
        "size": 390,
        "modifiedTime": 1597325381035,
        "changeTime": 1597325381035,
        "contentHash": "5a2aa2899c28d5575597f5ccce7e849efaaea85b"
    },
    "F:\\Inhouse Projects\\Material Design Components\\Repo\\mdlc\\force-app\\main\\default\\aura\\svg\\svg.cmp-meta.xml": {
        "sourcePath": "F:\\Inhouse Projects\\Material Design Components\\Repo\\mdlc\\force-app\\main\\default\\aura\\svg\\svg.cmp-meta.xml",
        "deferContentHash": false,
        "state": "u",
        "package": "force-app",
        "isDirectory": false,
        "isMetadataFile": true,
        "metadataType": "AuraDefinitionBundle",
        "size": 233,
        "modifiedTime": 1597325381036,
        "changeTime": 1597325381036,
        "contentHash": "33af41bd33b1704a1a395e4f69cbf966ecd59445"
    },
    "F:\\Inhouse Projects\\Material Design Components\\Repo\\mdlc\\force-app\\main\\default\\aura\\svg\\svgHelper.js": {
        "sourcePath": "F:\\Inhouse Projects\\Material Design Components\\Repo\\mdlc\\force-app\\main\\default\\aura\\svg\\svgHelper.js",
        "deferContentHash": false,
        "state": "u",
        "package": "force-app",
        "isDirectory": false,
        "isMetadataFile": false,
        "metadataType": "AuraDefinitionBundle",
        "size": 1188,
        "modifiedTime": 1597325381037,
        "changeTime": 1597325381037,
        "contentHash": "999bbe02303d9cb2b54f97e0f34ce6709b384388"
    },
    "F:\\Inhouse Projects\\Material Design Components\\Repo\\mdlc\\force-app\\main\\default\\aura\\svg\\svgRenderer.js": {
        "sourcePath": "F:\\Inhouse Projects\\Material Design Components\\Repo\\mdlc\\force-app\\main\\default\\aura\\svg\\svgRenderer.js",
        "deferContentHash": false,
        "state": "u",
        "package": "force-app",
        "isDirectory": false,
        "isMetadataFile": false,
        "metadataType": "AuraDefinitionBundle",
        "size": 140,
        "modifiedTime": 1597325381038,
        "changeTime": 1597325381038,
        "contentHash": "d143181d43546d7b8e3e63999b4ebd451dd8fe56"
    },
    "F:\\Inhouse Projects\\Material Design Components\\Repo\\mdlc\\force-app\\main\\default\\staticresources\\MaterialDesign.resource-meta.xml": {
        "sourcePath": "F:\\Inhouse Projects\\Material Design Components\\Repo\\mdlc\\force-app\\main\\default\\staticresources\\MaterialDesign.resource-meta.xml",
        "deferContentHash": false,
        "state": "u",
        "package": "force-app",
        "isDirectory": false,
        "isMetadataFile": true,
        "metadataType": "StaticResource",
        "size": 227,
        "modifiedTime": 1597733787857,
        "changeTime": 1597733787874,
        "contentHash": "87828c0daf9496e68146dc4966620ccf499dfafa"
    },
    "F:\\Inhouse Projects\\Material Design Components\\Repo\\mdlc\\force-app\\main\\default\\aura\\MDCTest": {
        "sourcePath": "F:\\Inhouse Projects\\Material Design Components\\Repo\\mdlc\\force-app\\main\\default\\aura\\MDCTest",
        "state": "u",
        "package": "force-app",
        "isDirectory": true,
        "isMetadataFile": false,
        "size": 0,
        "modifiedTime": 1597839219085,
        "changeTime": 1597839219085,
        "contentHash": "68db1d7a37113059f100780f0c6787de94f7865d"
    },
    "F:\\Inhouse Projects\\Material Design Components\\Repo\\mdlc\\force-app\\main\\default\\aura\\MDCTest\\MDCTest.app-meta.xml": {
        "sourcePath": "F:\\Inhouse Projects\\Material Design Components\\Repo\\mdlc\\force-app\\main\\default\\aura\\MDCTest\\MDCTest.app-meta.xml",
        "state": "u",
        "package": "force-app",
        "isDirectory": false,
        "isMetadataFile": true,
        "metadataType": "AuraDefinitionBundle",
        "size": 228,
        "modifiedTime": 1597839675426,
        "changeTime": 1597839675426,
        "contentHash": "20c78da5f96ae1b5d5785766c55ad5525dc42efb"
    },
    "F:\\Inhouse Projects\\Material Design Components\\Repo\\mdlc\\force-app\\main\\default\\aura\\MDCTest\\MDCTest.app": {
        "sourcePath": "F:\\Inhouse Projects\\Material Design Components\\Repo\\mdlc\\force-app\\main\\default\\aura\\MDCTest\\MDCTest.app",
        "state": "u",
        "package": "force-app",
        "isDirectory": false,
        "isMetadataFile": false,
        "metadataType": "AuraDefinitionBundle",
        "size": 8787,
        "modifiedTime": 1597839675434,
        "changeTime": 1597839675434,
        "contentHash": "91dca6917fac671f7e9dd3b893be921610ef57d5"
    },
    "F:\\Inhouse Projects\\Material Design Components\\Repo\\mdlc\\force-app\\main\\default\\aura\\MDCTextArea": {
        "sourcePath": "F:\\Inhouse Projects\\Material Design Components\\Repo\\mdlc\\force-app\\main\\default\\aura\\MDCTextArea",
        "state": "u",
        "package": "force-app",
        "isDirectory": true,
        "isMetadataFile": false,
        "size": 0,
        "modifiedTime": 1597750095898,
        "changeTime": 1597750095898,
        "contentHash": "e2993468314915ffaaa071c7f379dc50b91c0409"
    },
    "F:\\Inhouse Projects\\Material Design Components\\Repo\\mdlc\\force-app\\main\\default\\aura\\MDCTest\\MDCTest.css": {
        "sourcePath": "F:\\Inhouse Projects\\Material Design Components\\Repo\\mdlc\\force-app\\main\\default\\aura\\MDCTest\\MDCTest.css",
        "state": "u",
        "package": "force-app",
        "isDirectory": false,
        "isMetadataFile": false,
        "metadataType": "AuraDefinitionBundle",
        "size": 249,
        "modifiedTime": 1597839675434,
        "changeTime": 1597839675434,
        "contentHash": "bf9d63151b95111ee98ca97b09e5b92e57021519"
    },
    "F:\\Inhouse Projects\\Material Design Components\\Repo\\mdlc\\force-app\\main\\default\\aura\\MDCTextArea\\MDCTextArea.cmp-meta.xml": {
        "sourcePath": "F:\\Inhouse Projects\\Material Design Components\\Repo\\mdlc\\force-app\\main\\default\\aura\\MDCTextArea\\MDCTextArea.cmp-meta.xml",
        "state": "u",
        "package": "force-app",
        "isDirectory": false,
        "isMetadataFile": true,
        "metadataType": "AuraDefinitionBundle",
        "size": 237,
        "modifiedTime": 1597750095896,
        "changeTime": 1597750095896,
        "contentHash": "c271c0c6b51f8bf0fbfd039e0a55c36193c685d8"
    },
    "F:\\Inhouse Projects\\Material Design Components\\Repo\\mdlc\\force-app\\main\\default\\aura\\MDCTextArea\\MDCTextArea.cmp": {
        "sourcePath": "F:\\Inhouse Projects\\Material Design Components\\Repo\\mdlc\\force-app\\main\\default\\aura\\MDCTextArea\\MDCTextArea.cmp",
        "state": "u",
        "package": "force-app",
        "isDirectory": false,
        "isMetadataFile": false,
        "metadataType": "AuraDefinitionBundle",
        "size": 1825,
        "modifiedTime": 1597750095901,
        "changeTime": 1597750095901,
        "contentHash": "27f633a1a2f3ac5ba2df1c9981012b1eaf35ef6d"
    },
    "F:\\Inhouse Projects\\Material Design Components\\Repo\\mdlc\\force-app\\main\\default\\staticresources\\Images\\Images": {
        "sourcePath": "F:\\Inhouse Projects\\Material Design Components\\Repo\\mdlc\\force-app\\main\\default\\staticresources\\Images\\Images",
        "state": "u",
        "package": "force-app",
        "isDirectory": true,
        "isMetadataFile": false,
        "size": 0,
        "modifiedTime": 1597839219039,
        "changeTime": 1597839219039,
        "contentHash": "8a7914307e07ba3adaf1243e2607334ffa214df2"
    },
    "F:\\Inhouse Projects\\Material Design Components\\Repo\\mdlc\\force-app\\main\\default\\staticresources\\Images": {
        "sourcePath": "F:\\Inhouse Projects\\Material Design Components\\Repo\\mdlc\\force-app\\main\\default\\staticresources\\Images",
        "state": "u",
        "package": "force-app",
        "isDirectory": true,
        "isMetadataFile": false,
        "size": 0,
        "modifiedTime": 1597839218989,
        "changeTime": 1597839218989,
        "contentHash": "09e871c98fef3b901a775def173e4126aaf73b42"
    },
    "F:\\Inhouse Projects\\Material Design Components\\Repo\\mdlc\\force-app\\main\\default\\aura\\MDCCardActionButton": {
        "sourcePath": "F:\\Inhouse Projects\\Material Design Components\\Repo\\mdlc\\force-app\\main\\default\\aura\\MDCCardActionButton",
        "state": "u",
        "package": "force-app",
        "isDirectory": true,
        "isMetadataFile": false,
        "size": 0,
        "modifiedTime": 1597839219090,
        "changeTime": 1597839219090,
        "contentHash": "db3ffc35a2fdf7e160f197edc23ea0f88ad44cf1"
    },
    "F:\\Inhouse Projects\\Material Design Components\\Repo\\mdlc\\force-app\\main\\default\\aura\\MDCCardMedia": {
        "sourcePath": "F:\\Inhouse Projects\\Material Design Components\\Repo\\mdlc\\force-app\\main\\default\\aura\\MDCCardMedia",
        "state": "u",
        "package": "force-app",
        "isDirectory": true,
        "isMetadataFile": false,
        "size": 0,
        "modifiedTime": 1597839219095,
        "changeTime": 1597839219095,
        "contentHash": "4a875344464052618f1d7092c87309a5373b1c8e"
    },
    "F:\\Inhouse Projects\\Material Design Components\\Repo\\mdlc\\force-app\\main\\default\\aura\\MDCCard": {
        "sourcePath": "F:\\Inhouse Projects\\Material Design Components\\Repo\\mdlc\\force-app\\main\\default\\aura\\MDCCard",
        "state": "u",
        "package": "force-app",
        "isDirectory": true,
        "isMetadataFile": false,
        "size": 0,
        "modifiedTime": 1597839219118,
        "changeTime": 1597839219118,
        "contentHash": "e15cff00932e8e979843bd64e1ac15474c81b454"
    },
    "F:\\Inhouse Projects\\Material Design Components\\Repo\\mdlc\\force-app\\main\\default\\lwc\\mdcUtils": {
        "sourcePath": "F:\\Inhouse Projects\\Material Design Components\\Repo\\mdlc\\force-app\\main\\default\\lwc\\mdcUtils",
        "state": "u",
        "package": "force-app",
        "isDirectory": true,
        "isMetadataFile": false,
        "size": 0,
        "modifiedTime": 1597839219127,
        "changeTime": 1597839219127,
        "contentHash": "2a21ad5d53d006239a85041612df478cb50cf4a1"
    },
    "F:\\Inhouse Projects\\Material Design Components\\Repo\\mdlc\\force-app\\main\\default\\staticresources\\Images.resource-meta.xml": {
        "sourcePath": "F:\\Inhouse Projects\\Material Design Components\\Repo\\mdlc\\force-app\\main\\default\\staticresources\\Images.resource-meta.xml",
        "state": "u",
        "package": "force-app",
        "isDirectory": false,
        "isMetadataFile": true,
        "metadataType": "StaticResource",
        "size": 222,
        "modifiedTime": 1597839218823,
        "changeTime": 1597839218823,
        "contentHash": "2a135e336ba8b6bc150d4e94f6abb174d496a0f4"
    },
    "F:\\Inhouse Projects\\Material Design Components\\Repo\\mdlc\\force-app\\main\\default\\staticresources\\Images\\Images\\download (1).jpg": {
        "sourcePath": "F:\\Inhouse Projects\\Material Design Components\\Repo\\mdlc\\force-app\\main\\default\\staticresources\\Images\\Images\\download (1).jpg",
        "state": "u",
        "package": "force-app",
        "isDirectory": false,
        "isMetadataFile": false,
        "metadataType": "StaticResource",
        "size": 12748,
        "modifiedTime": 1597839219008,
        "changeTime": 1597839219008,
        "contentHash": "91c4a3dbb56674e5f367f438deeef4bd3a54e1ff"
    },
    "F:\\Inhouse Projects\\Material Design Components\\Repo\\mdlc\\force-app\\main\\default\\staticresources\\Images\\Images\\avengersendgame_lob_crd_05.jpg": {
        "sourcePath": "F:\\Inhouse Projects\\Material Design Components\\Repo\\mdlc\\force-app\\main\\default\\staticresources\\Images\\Images\\avengersendgame_lob_crd_05.jpg",
        "state": "u",
        "package": "force-app",
        "isDirectory": false,
        "isMetadataFile": false,
        "metadataType": "StaticResource",
        "size": 78592,
        "modifiedTime": 1597839219002,
        "changeTime": 1597839219002,
        "contentHash": "f214fc8bedb0f57dcf325a937fafe6a7dfc3aca6"
    },
    "F:\\Inhouse Projects\\Material Design Components\\Repo\\mdlc\\force-app\\main\\default\\staticresources\\Images\\Images\\img_30940.jpg": {
        "sourcePath": "F:\\Inhouse Projects\\Material Design Components\\Repo\\mdlc\\force-app\\main\\default\\staticresources\\Images\\Images\\img_30940.jpg",
        "state": "u",
        "package": "force-app",
        "isDirectory": false,
        "isMetadataFile": false,
        "metadataType": "StaticResource",
        "size": 95522,
        "modifiedTime": 1597839219038,
        "changeTime": 1597839219038,
        "contentHash": "06e5457e4dde22862d471bf65932cedfde2d59ec"
    },
    "F:\\Inhouse Projects\\Material Design Components\\Repo\\mdlc\\force-app\\main\\default\\staticresources\\Images\\Images\\download.jpg": {
        "sourcePath": "F:\\Inhouse Projects\\Material Design Components\\Repo\\mdlc\\force-app\\main\\default\\staticresources\\Images\\Images\\download.jpg",
        "state": "u",
        "package": "force-app",
        "isDirectory": false,
        "isMetadataFile": false,
        "metadataType": "StaticResource",
        "size": 12893,
        "modifiedTime": 1597839219015,
        "changeTime": 1597839219015,
        "contentHash": "de6d5229718954eab1d06804ff623407a1107b31"
    },
    "F:\\Inhouse Projects\\Material Design Components\\Repo\\mdlc\\force-app\\main\\default\\aura\\MDCTest\\MDCTestController.js": {
        "sourcePath": "F:\\Inhouse Projects\\Material Design Components\\Repo\\mdlc\\force-app\\main\\default\\aura\\MDCTest\\MDCTestController.js",
        "state": "u",
        "package": "force-app",
        "isDirectory": false,
        "isMetadataFile": false,
        "metadataType": "AuraDefinitionBundle",
        "size": 276,
        "modifiedTime": 1597839675442,
        "changeTime": 1597839675442,
        "contentHash": "04e2a9b29a246e47605d4f81d86268057b6975b4"
    },
    "F:\\Inhouse Projects\\Material Design Components\\Repo\\mdlc\\force-app\\main\\default\\aura\\MDCCardActionButton\\MDCCardActionButton.cmp-meta.xml": {
        "sourcePath": "F:\\Inhouse Projects\\Material Design Components\\Repo\\mdlc\\force-app\\main\\default\\aura\\MDCCardActionButton\\MDCCardActionButton.cmp-meta.xml",
        "state": "u",
        "package": "force-app",
        "isDirectory": false,
        "isMetadataFile": true,
        "metadataType": "AuraDefinitionBundle",
        "size": 228,
        "modifiedTime": 1597839219089,
        "changeTime": 1597839219089,
        "contentHash": "3777eb7c800ff2e217c3589385e773598ea24428"
    },
    "F:\\Inhouse Projects\\Material Design Components\\Repo\\mdlc\\force-app\\main\\default\\aura\\MDCCardActionButton\\MDCCardActionButton.cmp": {
        "sourcePath": "F:\\Inhouse Projects\\Material Design Components\\Repo\\mdlc\\force-app\\main\\default\\aura\\MDCCardActionButton\\MDCCardActionButton.cmp",
        "state": "u",
        "package": "force-app",
        "isDirectory": false,
        "isMetadataFile": false,
        "metadataType": "AuraDefinitionBundle",
        "size": 284,
        "modifiedTime": 1597839219091,
        "changeTime": 1597839219091,
        "contentHash": "90212a0e780cc25152774950d374b17c41b10fb4"
    },
    "F:\\Inhouse Projects\\Material Design Components\\Repo\\mdlc\\force-app\\main\\default\\aura\\MDCCardMedia\\MDCCardMedia.cmp-meta.xml": {
        "sourcePath": "F:\\Inhouse Projects\\Material Design Components\\Repo\\mdlc\\force-app\\main\\default\\aura\\MDCCardMedia\\MDCCardMedia.cmp-meta.xml",
        "state": "u",
        "package": "force-app",
        "isDirectory": false,
        "isMetadataFile": true,
        "metadataType": "AuraDefinitionBundle",
        "size": 228,
        "modifiedTime": 1597839219094,
        "changeTime": 1597839219094,
        "contentHash": "3777eb7c800ff2e217c3589385e773598ea24428"
    },
    "F:\\Inhouse Projects\\Material Design Components\\Repo\\mdlc\\force-app\\main\\default\\aura\\MDCCardMedia\\MDCCardMedia.cmp": {
        "sourcePath": "F:\\Inhouse Projects\\Material Design Components\\Repo\\mdlc\\force-app\\main\\default\\aura\\MDCCardMedia\\MDCCardMedia.cmp",
        "state": "u",
        "package": "force-app",
        "isDirectory": false,
        "isMetadataFile": false,
        "metadataType": "AuraDefinitionBundle",
        "size": 663,
        "modifiedTime": 1597839219100,
        "changeTime": 1597839219100,
        "contentHash": "ad3a2beb62694ed3d12b2572e82710f656618985"
    },
    "F:\\Inhouse Projects\\Material Design Components\\Repo\\mdlc\\force-app\\main\\default\\aura\\MDCCard\\MDCCard.cmp-meta.xml": {
        "sourcePath": "F:\\Inhouse Projects\\Material Design Components\\Repo\\mdlc\\force-app\\main\\default\\aura\\MDCCard\\MDCCard.cmp-meta.xml",
        "state": "u",
        "package": "force-app",
        "isDirectory": false,
        "isMetadataFile": true,
        "metadataType": "AuraDefinitionBundle",
        "size": 228,
        "modifiedTime": 1597839219103,
        "changeTime": 1597839219103,
        "contentHash": "3777eb7c800ff2e217c3589385e773598ea24428"
    },
    "F:\\Inhouse Projects\\Material Design Components\\Repo\\mdlc\\force-app\\main\\default\\aura\\MDCCard\\MDCCard.cmp": {
        "sourcePath": "F:\\Inhouse Projects\\Material Design Components\\Repo\\mdlc\\force-app\\main\\default\\aura\\MDCCard\\MDCCard.cmp",
        "state": "u",
        "package": "force-app",
        "isDirectory": false,
        "isMetadataFile": false,
        "metadataType": "AuraDefinitionBundle",
        "size": 973,
        "modifiedTime": 1597839219105,
        "changeTime": 1597839219105,
        "contentHash": "68f1bfe398cc5b1bdef2b3d9fbcc374b3370b463"
    },
    "F:\\Inhouse Projects\\Material Design Components\\Repo\\mdlc\\force-app\\main\\default\\aura\\MDCCard\\MDCCardController.js": {
        "sourcePath": "F:\\Inhouse Projects\\Material Design Components\\Repo\\mdlc\\force-app\\main\\default\\aura\\MDCCard\\MDCCardController.js",
        "state": "u",
        "package": "force-app",
        "isDirectory": false,
        "isMetadataFile": false,
        "metadataType": "AuraDefinitionBundle",
        "size": 212,
        "modifiedTime": 1597839219107,
        "changeTime": 1597839219107,
        "contentHash": "7ea72f8c6303d428cd92596d010b2ae2f686545a"
    },
    "F:\\Inhouse Projects\\Material Design Components\\Repo\\mdlc\\force-app\\main\\default\\aura\\MDCCard\\MDCCardRenderer.js": {
        "sourcePath": "F:\\Inhouse Projects\\Material Design Components\\Repo\\mdlc\\force-app\\main\\default\\aura\\MDCCard\\MDCCardRenderer.js",
        "state": "u",
        "package": "force-app",
        "isDirectory": false,
        "isMetadataFile": false,
        "metadataType": "AuraDefinitionBundle",
        "size": 165,
        "modifiedTime": 1597839219115,
        "changeTime": 1597839219115,
        "contentHash": "e30c4b7bf9742c887b0de271e3d146a8a06b371b"
    },
    "F:\\Inhouse Projects\\Material Design Components\\Repo\\mdlc\\force-app\\main\\default\\aura\\MDCCard\\MDCCardHelper.js": {
        "sourcePath": "F:\\Inhouse Projects\\Material Design Components\\Repo\\mdlc\\force-app\\main\\default\\aura\\MDCCard\\MDCCardHelper.js",
        "state": "u",
        "package": "force-app",
        "isDirectory": false,
        "isMetadataFile": false,
        "metadataType": "AuraDefinitionBundle",
        "size": 928,
        "modifiedTime": 1597839219117,
        "changeTime": 1597839219117,
        "contentHash": "2d7437a200cdf680b08306bbe56e327d33f7eae4"
    },
    "F:\\Inhouse Projects\\Material Design Components\\Repo\\mdlc\\force-app\\main\\default\\aura\\MDCCard\\MDCCard.css": {
        "sourcePath": "F:\\Inhouse Projects\\Material Design Components\\Repo\\mdlc\\force-app\\main\\default\\aura\\MDCCard\\MDCCard.css",
        "state": "u",
        "package": "force-app",
        "isDirectory": false,
        "isMetadataFile": false,
        "metadataType": "AuraDefinitionBundle",
        "size": 9,
        "modifiedTime": 1597839219120,
        "changeTime": 1597839219120,
        "contentHash": "690dd1ee4df0575d78499135bec93071e468c5a4"
    },
    "F:\\Inhouse Projects\\Material Design Components\\Repo\\mdlc\\force-app\\main\\default\\lwc\\mdcUtils\\mdcUtils.js-meta.xml": {
        "sourcePath": "F:\\Inhouse Projects\\Material Design Components\\Repo\\mdlc\\force-app\\main\\default\\lwc\\mdcUtils\\mdcUtils.js-meta.xml",
        "state": "u",
        "package": "force-app",
        "isDirectory": false,
        "isMetadataFile": true,
        "metadataType": "LightningComponentBundle",
        "size": 209,
        "modifiedTime": 1597839219126,
        "changeTime": 1597839219126,
        "contentHash": "870d4dbca8b633ab6ba787ca3939d6e007cd042c"
    },
    "F:\\Inhouse Projects\\Material Design Components\\Repo\\mdlc\\force-app\\main\\default\\lwc\\mdcUtils\\mdcUtils.js": {
        "sourcePath": "F:\\Inhouse Projects\\Material Design Components\\Repo\\mdlc\\force-app\\main\\default\\lwc\\mdcUtils\\mdcUtils.js",
        "state": "u",
        "package": "force-app",
        "isDirectory": false,
        "isMetadataFile": false,
        "metadataType": "LightningComponentBundle",
        "size": 445,
        "modifiedTime": 1597839219129,
        "changeTime": 1597839219129,
        "contentHash": "0b216ac1227243241c6ffd76b76e290bef419320"
    },
    "F:\\Inhouse Projects\\Material Design Components\\Repo\\mdlc\\force-app\\main\\default\\staticresources\\Images\\Images\\16928.jpg": {
        "sourcePath": "F:\\Inhouse Projects\\Material Design Components\\Repo\\mdlc\\force-app\\main\\default\\staticresources\\Images\\Images\\16928.jpg",
        "state": "u",
        "package": "force-app",
        "isDirectory": false,
        "isMetadataFile": false,
        "metadataType": "StaticResource",
        "size": 489023,
        "modifiedTime": 1597839218997,
        "changeTime": 1597839218997,
        "contentHash": "20a483d7d1e9a31e7705b52ea3212872fc38b654"
    },
    "F:\\Inhouse Projects\\Material Design Components\\Repo\\mdlc\\force-app\\main\\default\\staticresources\\Images\\Images\\tenor.gif": {
        "sourcePath": "F:\\Inhouse Projects\\Material Design Components\\Repo\\mdlc\\force-app\\main\\default\\staticresources\\Images\\Images\\tenor.gif",
        "state": "u",
        "package": "force-app",
        "isDirectory": false,
        "isMetadataFile": false,
        "metadataType": "StaticResource",
        "size": 2136965,
        "modifiedTime": 1597839219045,
        "changeTime": 1597839219045,
        "contentHash": "64e37b8623266d798d3f61b1050f486549616c4d"
    },
    "F:\\Inhouse Projects\\Material Design Components\\Repo\\mdlc\\force-app\\main\\default\\aura\\MDCMaterialIcons": {
        "sourcePath": "F:\\Inhouse Projects\\Material Design Components\\Repo\\mdlc\\force-app\\main\\default\\aura\\MDCMaterialIcons",
        "state": "u",
        "package": "force-app",
        "isDirectory": true,
        "isMetadataFile": false,
        "size": 0,
        "modifiedTime": 1597839675450,
        "changeTime": 1597839675450,
        "contentHash": "93fcd6f71ce19158d8386414ad23e5ca5435744a"
    },
    "F:\\Inhouse Projects\\Material Design Components\\Repo\\mdlc\\force-app\\main\\default\\aura\\MDCMaterialIcons\\MDCMaterialIcons.cmp-meta.xml": {
        "sourcePath": "F:\\Inhouse Projects\\Material Design Components\\Repo\\mdlc\\force-app\\main\\default\\aura\\MDCMaterialIcons\\MDCMaterialIcons.cmp-meta.xml",
        "state": "u",
        "package": "force-app",
        "isDirectory": false,
        "isMetadataFile": true,
        "metadataType": "AuraDefinitionBundle",
        "size": 228,
        "modifiedTime": 1597839675442,
        "changeTime": 1597839675442,
        "contentHash": "3777eb7c800ff2e217c3589385e773598ea24428"
    },
    "F:\\Inhouse Projects\\Material Design Components\\Repo\\mdlc\\force-app\\main\\default\\aura\\MDCMaterialIcons\\MDCMaterialIcons.cmp": {
        "sourcePath": "F:\\Inhouse Projects\\Material Design Components\\Repo\\mdlc\\force-app\\main\\default\\aura\\MDCMaterialIcons\\MDCMaterialIcons.cmp",
        "state": "u",
        "package": "force-app",
        "isDirectory": false,
        "isMetadataFile": false,
        "metadataType": "AuraDefinitionBundle",
        "size": 421,
        "modifiedTime": 1597839675450,
        "changeTime": 1597839675450,
        "contentHash": "4ef3fb1e0cd9f1ba0cb1ad38659ce4744e39f051"
    },
    "F:\\Inhouse Projects\\Material Design Components\\Repo\\mdlc\\force-app\\main\\default\\aura\\MDCMaterialIcons\\MDCMaterialIcons.css": {
        "sourcePath": "F:\\Inhouse Projects\\Material Design Components\\Repo\\mdlc\\force-app\\main\\default\\aura\\MDCMaterialIcons\\MDCMaterialIcons.css",
        "state": "u",
        "package": "force-app",
        "isDirectory": false,
        "isMetadataFile": false,
        "metadataType": "AuraDefinitionBundle",
        "size": 253,
        "modifiedTime": 1597839675450,
        "changeTime": 1597839675450,
        "contentHash": "38c13e3d51a27e35f9f0c61c1cff495831718a11"
    }
}